[gd_scene load_steps=6 format=2]

[ext_resource path="res://cursor.png" type="Texture" id=1]
[ext_resource path="res://Player.gd" type="Script" id=2]

[sub_resource type="AtlasTexture" id=1]
flags = 4
atlas = ExtResource( 1 )
region = Rect2( 0, 0, 64, 48 )

[sub_resource type="AtlasTexture" id=2]
flags = 4
atlas = ExtResource( 1 )
region = Rect2( 64, 0, 64, 48 )

[sub_resource type="SpriteFrames" id=3]
animations = [ {
"frames": [ SubResource( 1 ), SubResource( 2 ) ],
"loop": true,
"name": "idle",
"speed": 1.0
} ]

[node name="Player" type="Node2D"]
z_index = 99
script = ExtResource( 2 )

[node name="AnimatedSprite" type="AnimatedSprite" parent="."]
position = Vector2( 32, 24 )
frames = SubResource( 3 )
animation = "idle"
frame = 1
playing = true
